Download NJ car accident records for a given year — get_njtr1 • njtr1
…
      year
      Year to download crash data

      type
      The table of NJDOT crash data to download

    Value

    tibble of all reported accidents for the year

    Examples

get_njtr1(year = 2019, type = "Pedestrians")

#> # A tibble: 7,946 x 35
#>    id             pedestrian_numb… physical_conditi… address_city  address_state
#>    <chr>                     <dbl> <chr>             <chr>         <chr>        
#>  1 20190101I-201…                1 02                PLEASANTVILLE NJ           
#>  2 20190101I-201…                1 04                ABSECON       NJ           
#>  3 20190101I-201…                1 03                GALLOWAY      NJ           
#>  4 20190101I-201…                1 01                LINDENWOLD    NJ           
#>  5 20190101I-201…               31 NA                TUCKERTON     NJ           
#>  6 20190101I-201…                1 03                ABSECON       NJ           
#>  7 20190101I-201…                1 02                EGG HARBOR T… NJ           
#>  8 20190101I-201…                1 02                EGG HARBOR T… NJ           
#>  9 20190101I-201…                1 03                ABSECON       NJ           
#> 10 20190101I-201…                1 02                ABSECON       NJ           
#> # … with 7,936 more rows, and 30 more variables: address_zip <chr>,
#> #   date_of_birth <chr>, age <chr>, sex <chr>, alcohol_test_given <chr>,
#> #   alcohol_test_type <chr>, alcohol_test_results <lgl>, charge_1 <chr>,
#> #   summons_1 <chr>, charge_2 <chr>, summons_2 <chr>, charge_3 <lgl>,
#> #   summons_3 <lgl>, charge_4 <chr>, summons_4 <chr>, multi_charge_flag <lgl>,
#> #   traffic_controls <chr>, contributing_circumstances_1 <chr>,
#> #   contributing_circumstances_2 <chr>, direction_of_travel <chr>,
#> #   precrash_action <chr>, location_of_most_severe_injury <chr>,
#> #   type_of_most_severe_phys_injury <chr>, refused_medical_attention <chr>,
…
